{
  "response": {
    "status": "ok",
    "userTier": "developer",
    "total": 675,
    "startIndex": 1,
    "pageSize": 3,
    "currentPage": 1,
    "pages": 225,
    "orderBy": "newest",
    "tag": {
      "id": "theguardian/series/the-quiz-thomas-eaton",
      "type": "series",
      "sectionId": "lifeandstyle",
      "sectionName": "Life and style",
      "webTitle": "The quiz",
      "webUrl": "https://www.theguardian.com/theguardian/series/the-quiz-thomas-eaton",
      "apiUrl": "https://content.guardianapis.com/theguardian/series/the-quiz-thomas-eaton",
      "description": "Thomas Eaton's weekly general knowledge quiz"
    },
    "results": [
      {
        "id": "games/article/2024/may/25/which-technology-was-popularised-by-chers-hit-believe-the-saturday-quiz",
        "type": "article",
        "sectionId": "games",
        "sectionName": "Games",
        "webPublicationDate": "2024-05-25T06:00:17Z",
        "webTitle": "Which technology was popularised by Cher’s hit Believe? The Saturday quiz",
        "webUrl": "https://www.theguardian.com/games/article/2024/may/25/which-technology-was-popularised-by-chers-hit-believe-the-saturday-quiz",
        "apiUrl": "https://content.guardianapis.com/games/article/2024/may/25/which-technology-was-popularised-by-chers-hit-believe-the-saturday-quiz",
        "isHosted": false,
        "pillarId": "pillar/arts",
        "pillarName": "Arts"
      },
      {
        "id": "lifeandstyle/article/2024/may/18/caitlin-moran-described-which-pm-as-a-c-3po-made-of-ham-the-saturday-quiz",
        "type": "article",
        "sectionId": "lifeandstyle",
        "sectionName": "Life and style",
        "webPublicationDate": "2024-05-18T06:00:05Z",
        "webTitle": "Caitlin Moran described which PM as a ‘C-3PO made of ham’? The Saturday quiz",
        "webUrl": "https://www.theguardian.com/lifeandstyle/article/2024/may/18/caitlin-moran-described-which-pm-as-a-c-3po-made-of-ham-the-saturday-quiz",
        "apiUrl": "https://content.guardianapis.com/lifeandstyle/article/2024/may/18/caitlin-moran-described-which-pm-as-a-c-3po-made-of-ham-the-saturday-quiz",
        "isHosted": false,
        "pillarId": "pillar/lifestyle",
        "pillarName": "Lifestyle"
      },
      {
        "id": "lifeandstyle/article/2024/may/11/which-couples-tomb-was-discovered-at-glastonbury-abbey-the-saturday-quiz",
        "type": "article",
        "sectionId": "lifeandstyle",
        "sectionName": "Life and style",
        "webPublicationDate": "2024-05-11T06:00:22Z",
        "webTitle": "Which couple’s tomb was ‘discovered’ at Glastonbury Abbey? The Saturday quiz",
        "webUrl": "https://www.theguardian.com/lifeandstyle/article/2024/may/11/which-couples-tomb-was-discovered-at-glastonbury-abbey-the-saturday-quiz",
        "apiUrl": "https://content.guardianapis.com/lifeandstyle/article/2024/may/11/which-couples-tomb-was-discovered-at-glastonbury-abbey-the-saturday-quiz",
        "isHosted": false,
        "pillarId": "pillar/lifestyle",
        "pillarName": "Lifestyle"
      }
    ],
    "leadContent": [
      {
        "id": "lifeandstyle/article/2024/may/18/caitlin-moran-described-which-pm-as-a-c-3po-made-of-ham-the-saturday-quiz",
        "type": "article",
        "sectionId": "lifeandstyle",
        "sectionName": "Life and style",
        "webPublicationDate": "2024-05-18T06:00:05Z",
        "webTitle": "Caitlin Moran described which PM as a ‘C-3PO made of ham’? The Saturday quiz",
        "webUrl": "https://www.theguardian.com/lifeandstyle/article/2024/may/18/caitlin-moran-described-which-pm-as-a-c-3po-made-of-ham-the-saturday-quiz",
        "apiUrl": "https://content.guardianapis.com/lifeandstyle/article/2024/may/18/caitlin-moran-described-which-pm-as-a-c-3po-made-of-ham-the-saturday-quiz",
        "tags": [],
        "references": [],
        "isHosted": false,
        "pillarId": "pillar/lifestyle",
        "pillarName": "Lifestyle"
      },
      {
        "id": "lifeandstyle/article/2024/may/11/which-couples-tomb-was-discovered-at-glastonbury-abbey-the-saturday-quiz",
        "type": "article",
        "sectionId": "lifeandstyle",
        "sectionName": "Life and style",
        "webPublicationDate": "2024-05-11T06:00:22Z",
        "webTitle": "Which couple’s tomb was ‘discovered’ at Glastonbury Abbey? The Saturday quiz",
        "webUrl": "https://www.theguardian.com/lifeandstyle/article/2024/may/11/which-couples-tomb-was-discovered-at-glastonbury-abbey-the-saturday-quiz",
        "apiUrl": "https://content.guardianapis.com/lifeandstyle/article/2024/may/11/which-couples-tomb-was-discovered-at-glastonbury-abbey-the-saturday-quiz",
        "tags": [],
        "references": [],
        "isHosted": false,
        "pillarId": "pillar/lifestyle",
        "pillarName": "Lifestyle"
      },
      {
        "id": "lifeandstyle/2024/may/04/what-links-martina-navratilova-and-alastair-cook-the-saturday-quiz",
        "type": "article",
        "sectionId": "lifeandstyle",
        "sectionName": "Life and style",
        "webPublicationDate": "2024-05-04T06:00:34Z",
        "webTitle": "What links Martina Navratilova and Alastair Cook? The Saturday quiz",
        "webUrl": "https://www.theguardian.com/lifeandstyle/2024/may/04/what-links-martina-navratilova-and-alastair-cook-the-saturday-quiz",
        "apiUrl": "https://content.guardianapis.com/lifeandstyle/2024/may/04/what-links-martina-navratilova-and-alastair-cook-the-saturday-quiz",
        "tags": [],
        "references": [],
        "isHosted": false,
        "pillarId": "pillar/lifestyle",
        "pillarName": "Lifestyle"
      },
      {
        "id": "lifeandstyle/2024/apr/27/what-links-ana-matronic-and-the-guardian-the-saturday-quiz",
        "type": "article",
        "sectionId": "lifeandstyle",
        "sectionName": "Life and style",
        "webPublicationDate": "2024-04-27T06:00:30Z",
        "webTitle": "What links Ana Matronic and the Guardian? The Saturday quiz",
        "webUrl": "https://www.theguardian.com/lifeandstyle/2024/apr/27/what-links-ana-matronic-and-the-guardian-the-saturday-quiz",
        "apiUrl": "https://content.guardianapis.com/lifeandstyle/2024/apr/27/what-links-ana-matronic-and-the-guardian-the-saturday-quiz",
        "tags": [],
        "references": [],
        "isHosted": false,
        "pillarId": "pillar/lifestyle",
        "pillarName": "Lifestyle"
      },
      {
        "id": "lifeandstyle/2024/apr/20/what-links-tutti-frutti-with-shout-out-to-my-ex-the-saturday-quiz",
        "type": "article",
        "sectionId": "lifeandstyle",
        "sectionName": "Life and style",
        "webPublicationDate": "2024-04-20T06:00:18Z",
        "webTitle": "What links Tutti Frutti with Shout Out to My Ex? The Saturday quiz",
        "webUrl": "https://www.theguardian.com/lifeandstyle/2024/apr/20/what-links-tutti-frutti-with-shout-out-to-my-ex-the-saturday-quiz",
        "apiUrl": "https://content.guardianapis.com/lifeandstyle/2024/apr/20/what-links-tutti-frutti-with-shout-out-to-my-ex-the-saturday-quiz",
        "tags": [],
        "references": [],
        "isHosted": false,
        "pillarId": "pillar/lifestyle",
        "pillarName": "Lifestyle"
      },
      {
        "id": "lifeandstyle/2024/apr/13/what-links-alice-in-wonderland-with-mr-lazy-the-saturday-quiz",
        "type": "article",
        "sectionId": "lifeandstyle",
        "sectionName": "Life and style",
        "webPublicationDate": "2024-04-13T06:00:17Z",
        "webTitle": "What links Alice in Wonderland with Mr Lazy? The Saturday quiz",
        "webUrl": "https://www.theguardian.com/lifeandstyle/2024/apr/13/what-links-alice-in-wonderland-with-mr-lazy-the-saturday-quiz",
        "apiUrl": "https://content.guardianapis.com/lifeandstyle/2024/apr/13/what-links-alice-in-wonderland-with-mr-lazy-the-saturday-quiz",
        "tags": [],
        "references": [],
        "isHosted": false,
        "pillarId": "pillar/lifestyle",
        "pillarName": "Lifestyle"
      },
      {
        "id": "lifeandstyle/2024/apr/06/what-links-bull-moose-and-know-nothing-the-saturday-quiz",
        "type": "article",
        "sectionId": "lifeandstyle",
        "sectionName": "Life and style",
        "webPublicationDate": "2024-04-06T06:00:27Z",
        "webTitle": "What links Bull Moose and Know Nothing? The Saturday quiz",
        "webUrl": "https://www.theguardian.com/lifeandstyle/2024/apr/06/what-links-bull-moose-and-know-nothing-the-saturday-quiz",
        "apiUrl": "https://content.guardianapis.com/lifeandstyle/2024/apr/06/what-links-bull-moose-and-know-nothing-the-saturday-quiz",
        "tags": [],
        "references": [],
        "isHosted": false,
        "pillarId": "pillar/lifestyle",
        "pillarName": "Lifestyle"
      },
      {
        "id": "lifeandstyle/2024/mar/30/what-links-marketa-vondrousova-with-boris-becker-the-saturday-quiz",
        "type": "article",
        "sectionId": "lifeandstyle",
        "sectionName": "Life and style",
        "webPublicationDate": "2024-03-30T07:00:02Z",
        "webTitle": "What links Marketa Vondrousova with Boris Becker? The Saturday quiz",
        "webUrl": "https://www.theguardian.com/lifeandstyle/2024/mar/30/what-links-marketa-vondrousova-with-boris-becker-the-saturday-quiz",
        "apiUrl": "https://content.guardianapis.com/lifeandstyle/2024/mar/30/what-links-marketa-vondrousova-with-boris-becker-the-saturday-quiz",
        "tags": [],
        "references": [],
        "isHosted": false,
        "pillarId": "pillar/lifestyle",
        "pillarName": "Lifestyle"
      },
      {
        "id": "lifeandstyle/2024/mar/23/blondie-were-on-the-first-cover-of-which-magazine-in-1978-the-saturday-quiz",
        "type": "article",
        "sectionId": "lifeandstyle",
        "sectionName": "Life and style",
        "webPublicationDate": "2024-03-23T07:00:14Z",
        "webTitle": "Blondie were on the first cover of which magazine in 1978? The Saturday quiz",
        "webUrl": "https://www.theguardian.com/lifeandstyle/2024/mar/23/blondie-were-on-the-first-cover-of-which-magazine-in-1978-the-saturday-quiz",
        "apiUrl": "https://content.guardianapis.com/lifeandstyle/2024/mar/23/blondie-were-on-the-first-cover-of-which-magazine-in-1978-the-saturday-quiz",
        "tags": [],
        "references": [],
        "isHosted": false,
        "pillarId": "pillar/lifestyle",
        "pillarName": "Lifestyle"
      },
      {
        "id": "lifeandstyle/2024/mar/16/what-links-william-tell-with-joan-of-arc-the-saturday-quiz",
        "type": "article",
        "sectionId": "lifeandstyle",
        "sectionName": "Life and style",
        "webPublicationDate": "2024-03-16T07:00:02Z",
        "webTitle": "What links William Tell with Joan of Arc? The Saturday quiz",
        "webUrl": "https://www.theguardian.com/lifeandstyle/2024/mar/16/what-links-william-tell-with-joan-of-arc-the-saturday-quiz",
        "apiUrl": "https://content.guardianapis.com/lifeandstyle/2024/mar/16/what-links-william-tell-with-joan-of-arc-the-saturday-quiz",
        "tags": [],
        "references": [],
        "isHosted": false,
        "pillarId": "pillar/lifestyle",
        "pillarName": "Lifestyle"
      }
    ]
  }
}
